module gitlab.com/remotejob/httpsproxyv3

go 1.14

require (
	github.com/cenkalti/backoff/v4 v4.1.0 // indirect
	github.com/fsnotify/fsnotify v1.4.9 // indirect
	github.com/go-acme/lego/v4 v4.3.1
	github.com/go-sql-driver/mysql v1.5.0 // indirect
	github.com/google/go-cmp v0.5.5 // indirect
	github.com/gopherjs/gopherjs v0.0.0-20210202160940-bed99a852dfe // indirect
	github.com/ip2location/ip2location-go v8.3.0+incompatible
	github.com/kr/pretty v0.2.1 // indirect
	github.com/kr/text v0.2.0 // indirect
	github.com/magiconair/properties v1.8.4 // indirect
	github.com/mattn/go-sqlite3 v1.14.6
	github.com/mitchellh/mapstructure v1.4.1 // indirect
	github.com/niemeyer/pretty v0.0.0-20200227124842-a10e7caefd8e // indirect
	github.com/pelletier/go-toml v1.8.1 // indirect
	github.com/smartystreets/assertions v1.2.0 // indirect
	github.com/spf13/afero v1.5.1 // indirect
	github.com/spf13/cast v1.3.1 // indirect
	github.com/spf13/jwalterweatherman v1.1.0 // indirect
	github.com/spf13/pflag v1.0.5 // indirect
	github.com/spf13/viper v1.7.1
	github.com/stretchr/testify v1.7.0 // indirect
	github.com/vultr/govultr v0.5.0 // indirect
	golang.org/x/crypto v0.0.0-20210317152858-513c2a44f670 // indirect
	golang.org/x/net v0.0.0-20210316092652-d523dce5a7f4 // indirect
	golang.org/x/sync v0.0.0-20210220032951-036812b2e83c // indirect
	golang.org/x/sys v0.0.0-20210317225723-c4fcb01b228e // indirect
	golang.org/x/text v0.3.5 // indirect
	golang.org/x/xerrors v0.0.0-20200804184101-5ec99f83aff1 // indirect
	gopkg.in/check.v1 v1.0.0-20201130134442-10cb98267c6c // indirect
	gopkg.in/ini.v1 v1.62.0 // indirect
	gopkg.in/yaml.v2 v2.4.0 // indirect
	gopkg.in/yaml.v3 v3.0.0-20210107192922-496545a6307b // indirect
)
